X.1,label,column,well,Plate,Indiv,SPP,spp_actual,plot,rep
20,A1w2,A,1,2,142,PLOC,PLOC,1,rep1
25,A2w2,A,2,2,207,PLOC,PLOC,1,rep1
438,G12w2,G,12,2,96,PLOC,PLOC,1,rep1
500,H1w2,H,1,2,71,PLOC,PLOC,1,rep1
505,H2w2,H,2,2,108,PLOC,PLOC,1,rep1
511,H3w2,H,3,2,118,PLOC,PLOC,1,rep1
41,A5w2,A,5,2,622,QUVE,*QUPA,2,rep1
58,A8w2,A,8,2,317,ACRU,ACRU,2,rep1
69,B10w1,B,10,1,326,ACRU,ACRU,2,rep1
75,B11w1,B,11,1,327,ACRU,ACRU,2,rep1
80,B12w1,B,12,1,362,ACRU,ACRU,2,rep1
157,C1w1,C,1,1,386,ACRU,ACRU,2,rep1
158,C1w1,C,1,1,386,ACRU,ACRU,2,rep1
163,C2w1,C,2,1,409,ACRU,ACRU,2,rep1
169,C3w1,C,3,1,444,ACRU,ACRU,2,rep1
31,A3w2,A,3,2,561,QUVE,*QUPA,3,rep1
37,A4w2,A,4,2,567,QUVE,*QUPA,3,rep1
46,A6w2,A,6,2,667,QUVE,*QUPA,3,rep1
52,A7w2,A,7,2,682,QUVE,*QUPA,3,rep1
21,A1w3,A,1,3,863,PLOC,PLOC,4,rep1
26,A2w3,A,2,3,867,PLOC,PLOC,4,rep1
32,A3w3,A,3,3,921,PLOC,PLOC,4,rep1
38,A4w3,A,4,3,964,PLOC,PLOC,4,rep1
283,E10w1,E,10,1,860,QUVE,QUVE,4,rep1
289,E11w1,E,11,1,933,QUVE,QUVE,4,rep1
295,E12w1,E,12,1,938,QUVE,QUVE,4,rep1
343,E8w1,E,8,1,806,QUVE,QUVE,4,rep1
349,E9w1,E,9,1,832,QUVE,QUVE,4,rep1
372,F1w1,F,1,1,939,QUVE,QUVE,4,rep1
373,F1w1,F,1,1,939,QUVE,QUVE,4,rep1
517,H4w2,H,4,2,821,PLOC,PLOC,4,rep1
523,H5w2,H,5,2,859,PLOC,PLOC,4,rep1
2,A10w2,A,10,2,1114,PLOC,PLOC,5,rep1
8,A11w2,A,11,2,1116,PLOC,PLOC,5,rep1
14,A12w2,A,12,2,1128,PLOC,PLOC,5,rep1
64,A9w2,A,9,2,1091,PLOC,PLOC,5,rep1
88,B1w2,B,1,2,1162,PLOC,PLOC,5,rep1
93,B2w2,B,2,2,1234,PLOC,PLOC,5,rep1
175,C4w1,C,4,1,1106,ACRU,ACRU,5,rep1
181,C5w1,C,5,1,1090,ACRU,ACRU,5,rep1
187,C6w1,C,6,1,1139,ACRU,ACRU,5,rep1
193,C7w1,C,7,1,1169,ACRU,ACRU,5,rep1
199,C8w1,C,8,1,1183,ACRU,ACRU,5,rep1
205,C9w1,C,9,1,1209,QUVE,QUVE,5,rep1
354,F10w1,F,10,1,1177,QUVE,*QUPA,5,rep1
360,F11w1,F,11,1,1192,QUVE,QUVE,5,rep1
366,F12w1,F,12,1,1227,QUVE,QUVE,5,rep1
378,F2w1,F,2,1,1042,NYSY,NYSY,5,rep1
384,F3w1,F,3,1,1071,QUVE,QUVE,5,rep1
390,F4w1,F,4,1,1077,QUVE,QUVE,5,rep1
396,F5w1,F,5,1,1105,NYSY,NYSY,5,rep1
407,F7w1,F,7,1,1158,NYSY,NYSY,5,rep1
413,F8w1,F,8,1,1132,QUVE,QUVE,5,rep1
419,F9w1,F,9,1,1163,NYSY,NYSY,5,rep1
443,G1w1,G,1,1,1244,NYSY,NYSY,5,rep1
444,G1w1,G,1,1,1244,NYSY,NYSY,5,rep1
98,B3w2,B,3,2,1323,ULAM,ULAM,6,rep1
104,B4w2,B,4,2,1329,ULAM,ULAM,6,rep1
110,B5w2,B,5,2,1369,ULAM,ULAM,6,rep1
116,B6w2,B,6,2,1387,ULAM,ULAM,6,rep1
122,B7w2,B,7,2,1415,ULAM,ULAM,6,rep1
128,B8w2,B,8,2,1481,ULAM,ULAM,6,rep1
70,B10w2,B,10,2,1580,QUAL,QUAL,7,rep1
76,B11w2,B,11,2,1597,QUAL,QUAL,7,rep1
81,B12w2,B,12,2,1631,QUAL,QUAL,7,rep1
134,B9w2,B,9,2,1567,QUAL,QUAL,7,rep1
159,C1w2,C,1,2,1646,QUAL,QUAL,7,rep1
164,C2w2,C,2,2,1706,QUAL,QUAL,7,rep1
425,G10w1,G,10,1,1668,NYSY,NYSY,7,rep1
431,G11w1,G,11,1,1688,CAAL27,CAAL27,7,rep1
437,G12w1,G,12,1,1693,NYSY,NYSY,7,rep1
449,G2w1,G,2,1,1556,CAAL27,CAAL27,7,rep1
455,G3w1,G,3,1,1596,NYSY,NYSY,7,rep1
461,G4w1,G,4,1,1609,NYSY,NYSY,7,rep1
467,G5w1,G,5,1,1614,CAAL27,CAAL27,7,rep1
473,G6w1,G,6,1,1641,CAAL27,CAAL27,7,rep1
479,G7w1,G,7,1,1645,CAAL27,CAAL27,7,rep1
485,G8w1,G,8,1,1649,NYSY,NYSY,7,rep1
491,G9w1,G,9,1,1659,NYSY,NYSY,7,rep1
499,H1w1,H,1,1,1714,CAAL27,CAAL27,7,rep1
170,C3w2,C,3,2,1821,NYSY,NYSY,8,rep1
176,C4w2,C,4,2,1855,NYSY,NYSY,8,rep1
182,C5w2,C,5,2,1888,NYSY,NYSY,8,rep1
188,C6w2,C,6,2,1931,NYSY,NYSY,8,rep1
194,C7w2,C,7,2,1942,NYSY,NYSY,8,rep1
200,C8w2,C,8,2,1998,NYSY,NYSY,8,rep1
139,C10w1,C,10,1,2075,FAGR,FAGR,9,rep1
145,C11w1,C,11,1,2110,FAGR,FAGR,9,rep1
151,C12w1,C,12,1,2179,FAGR,FAGR,9,rep1
229,D1w1,D,1,1,2182,FAGR,FAGR,9,rep1
230,D1w1,D,1,1,2182,FAGR,FAGR,9,rep1
235,D2w1,D,2,1,2188,FAGR,FAGR,9,rep1
241,D3w1,D,3,1,2226,FAGR,FAGR,9,rep1
39,A4w6,A,4,6,2437,ULAM,ULAM,10,rep1
140,C10w2,C,10,2,2343,ULAM,ULAM,10,rep1
146,C11w2,C,11,2,2352,ULAM,ULAM,10,rep1
152,C12w2,C,12,2,2409,ULAM,ULAM,10,rep1
206,C9w2,C,9,2,2332,ULAM,ULAM,10,rep1
231,D1w2,D,1,2,2436,ULAM,ULAM,10,rep1
236,D2w2,D,2,2,2502,ULAM,ULAM,10,rep1
247,D4w1,D,4,1,2338,FAGR,FAGR,10,rep1
253,D5w1,D,5,1,2365,FAGR,FAGR,10,rep1
259,D6w1,D,6,1,2423,FAGR,FAGR,10,rep1
265,D7w1,D,7,1,2433,FAGR,FAGR,10,rep1
271,D8w1,D,8,1,2441,FAGR,FAGR,10,rep1
277,D9w1,D,9,1,2485,FAGR,FAGR,10,rep1
1,A10w1,A,10,1,2631,COFL2,COFL2,11,rep1
13,A12w1,A,12,1,2617,COFL2,COFL2,11,rep1
29,A2w6,A,2,6,2707,ULAM,ULAM,11,rep1
35,A3w6,A,3,6,2722,ULAM,ULAM,11,rep1
92,B2w1,B,2,1,2613,COFL2,COFL2,11,rep1
97,B3w1,B,3,1,2705,COFL2,COFL2,11,rep1
103,B4w1,B,4,1,2698,COFL2,COFL2,11,rep1
109,B5w1,B,5,1,2682,COFL2,COFL2,11,rep1
211,D10w1,D,10,1,2615,ACRU,ACRU,11,rep1
217,D11w1,D,11,1,2632,ACRU,ACRU,11,rep1
223,D12w1,D,12,1,2667,ACRU,ACRU,11,rep1
242,D3w2,D,3,2,2602,ULAM,ULAM,11,rep1
248,D4w2,D,4,2,2605,ULAM,ULAM,11,rep1
254,D5w2,D,5,2,2652,ULAM,ULAM,11,rep1
260,D6w2,D,6,2,2678,ULAM,ULAM,11,rep1
266,D7w2,D,7,2,2696,ULAM,ULAM,11,rep1
272,D8w2,D,8,2,2749,ULAM,ULAM,11,rep1
301,E1w1,E,1,1,2673,ACRU,ACRU,11,rep1
302,E1w1,E,1,1,2673,ACRU,ACRU,11,rep1
307,E2w1,E,2,1,2719,ACRU,ACRU,11,rep1
313,E3w1,E,3,1,2737,ACRU,ACRU,11,rep1
19,A1w1,A,1,1,2887,COFL2,COFL2,12,rep1
30,A3w1,A,3,1,2901,COFL2,COFL2,12,rep1
40,A5w1,A,5,1,2963,COFL2,COFL2,12,rep1
45,A6w1,A,6,1,2972,COFL2,COFL2,12,rep1
51,A7w1,A,7,1,2930,COFL2,COFL2,12,rep1
63,A9w1,A,9,1,2913,COFL2,COFL2,12,rep1
7,A11w1,A,11,1,3178,COFL2,COFL2,13,rep1
24,A2w1,A,2,1,3239,COFL2,COFL2,13,rep1
36,A4w1,A,4,1,3218,COFL2,COFL2,13,rep1
57,A8w1,A,8,1,3160,COFL2,COFL2,13,rep1
86,B1w1,B,1,1,3170,COFL2,COFL2,13,rep1
87,B1w1,B,1,1,3170,COFL2,COFL2,13,rep1
319,E4w1,E,4,1,3158,COFL2,COFL2,13,rep1
337,E7w1,E,7,1,3156,PLOC,PLOC,13,rep1
497,H10w1,H,10,1,3022,COFL2,COFL2,13,rep1
510,H3w1,H,3,1,3118,CAAL27,CAAL27,13,rep1
516,H4w1,H,4,1,3161,CAAL27,CAAL27,13,rep1
522,H5w1,H,5,1,3203,CAAL27,CAAL27,13,rep1
527,H6w1,H,6,1,3260,CAAL27,CAAL27,13,rep1
532,H7w1,H,7,1,3273,CAAL27,CAAL27,13,rep1
537,H8w1,H,8,1,3275,CAAL27,CAAL27,13,rep1
115,B6w1,B,6,1,3455,FAGR,FAGR,14,rep1
121,B7w1,B,7,1,3357,FAGR,FAGR,14,rep1
127,B8w1,B,8,1,3384,FAGR,FAGR,14,rep1
133,B9w1,B,9,1,3518,FAGR,FAGR,14,rep1
325,E5w1,E,5,1,3442,FAGR,FAGR,14,rep1
331,E6w1,E,6,1,3462,FAGR,FAGR,14,rep1
212,D10w2,D,10,2,3760,CAAL27,CAAL27,15,rep1
218,D11w2,D,11,2,3778,CAAL27,CAAL27,15,rep1
278,D9w2,D,9,2,3756,CAAL27,CAAL27,15,rep1
542,H9w1,H,9,1,3606,CAAL27,CAAL27,15,rep1
224,D12w2,D,12,2,3881,CACA18,CACA18,16,rep1
303,E1w2,E,1,2,3896,CACA18,CACA18,16,rep1
308,E2w2,E,2,2,3992,CACA18,CACA18,16,rep1
314,E3w2,E,3,2,4010,CACA18,CACA18,16,rep1
320,E4w2,E,4,2,4014,CACA18,CACA18,16,rep1
326,E5w2,E,5,2,4043,CACA18,CACA18,16,rep1
284,E10w2,E,10,2,4176,QUAL,QUAL,17,rep1
290,E11w2,E,11,2,4179,CACA18,CACA18,17,rep1
296,E12w2,E,12,2,4190,QUAL,QUAL,17,rep1
332,E6w2,E,6,2,4115,QUAL,QUAL,17,rep1
338,E7w2,E,7,2,4118,QUAL,QUAL,17,rep1
344,E8w2,E,8,2,4130,CACA18,CACA18,17,rep1
350,E9w2,E,9,2,4147,QUAL,QUAL,17,rep1
374,F1w2,F,1,2,4195,QUVE,QUVE,17,rep1
379,F2w2,F,2,2,4237,QUAL,QUAL,17,rep1
385,F3w2,F,3,2,4267,CACA18,CACA18,17,rep1
391,F4w2,F,4,2,4270,CACA18,CACA18,17,rep1
397,F5w2,F,5,2,4298,CACA18,CACA18,17,rep1
355,F10w2,F,10,2,4520,CACA18,CACA18,18,rep1
361,F11w2,F,11,2,4554,CACA18,CACA18,18,rep1
402,F6w2,F,6,2,4390,CACA18,CACA18,18,rep1
408,F7w2,F,7,2,4405,CACA18,CACA18,18,rep1
414,F8w2,F,8,2,4448,CACA18,CACA18,18,rep1
420,F9w2,F,9,2,4507,CACA18,CACA18,18,rep1
367,F12w2,F,12,2,4644,QUAL,QUAL,19,rep1
445,G1w2,G,1,2,4647,QUAL,QUAL,19,rep1
450,G2w2,G,2,2,4662,QUAL,QUAL,19,rep1
456,G3w2,G,3,2,4685,QUAL,QUAL,19,rep1
462,G4w2,G,4,2,4690,QUAL,QUAL,19,rep1
468,G5w2,G,5,2,4765,QUAL,QUAL,19,rep1
429,G10w5,G,10,5,4953,QUAL,QUAL,20,rep2
435,G11w5,G,11,5,4957,QUAL,QUAL,20,rep2
441,G12w5,G,12,5,5014,QUAL,QUAL,20,rep2
489,G8w5,G,8,5,4896,QUAL,QUAL,20,rep2
495,G9w5,G,9,5,4928,QUAL,QUAL,20,rep2
503,H1w5,H,1,5,5034,QUAL,QUAL,20,rep2
23,A1w5,A,1,5,5155,QUAL,QUAL,21,rep2
28,A2w5,A,2,5,5183,QUAL,QUAL,21,rep2
34,A3w5,A,3,5,5227,QUAL,QUAL,21,rep2
44,A5w5,A,5,5,5304,QUAL,QUAL,21,rep2
49,A6w5,A,6,5,5307,QUAL,QUAL,21,rep2
3,A10w3,A,10,3,5532,FRPE,FRPE,22,rep1
6,A10w6,A,10,6,5555,LIST2,LIST2,22,rep1
12,A11w6,A,11,6,5562,LIST2,LIST2,22,rep1
42,A5w3,A,5,3,5411,FRPE,FRPE,22,rep1
47,A6w3,A,6,3,5439,FRPE,FRPE,22,rep1
50,A6w6,A,6,6,5388,LIST2,LIST2,22,rep1
53,A7w3,A,7,3,5455,FRPE,FRPE,22,rep1
56,A7w6,A,7,6,5482,LIST2,LIST2,22,rep1
59,A8w3,A,8,3,5496,FRPE,FRPE,22,rep1
62,A8w6,A,8,6,5517,LIST2,LIST2,22,rep1
65,A9w3,A,9,3,5500,FRPE,FRPE,22,rep1
68,A9w6,A,9,6,5528,LIST2,LIST2,22,rep1
5,A10w5,A,10,5,5737,QUAL,QUAL,23,rep2
11,A11w5,A,11,5,5795,QUAL,QUAL,23,rep2
17,A12w5,A,12,5,5814,QUAL,QUAL,23,rep2
55,A7w5,A,7,5,5665,QUAL,QUAL,23,rep2
61,A8w5,A,8,5,5692,QUAL,QUAL,23,rep2
67,A9w5,A,9,5,5734,QUAL,QUAL,23,rep2
9,A11w3,A,11,3,5934,QURU,QURU,25,rep1
15,A12w3,A,12,3,5961,QURU,QURU,25,rep1
89,B1w3,B,1,3,5967,QURU,QURU,25,rep1
99,B3w3,B,3,3,6057,QURU,QURU,25,rep1
105,B4w3,B,4,3,6066,QURU,QURU,25,rep1
71,B10w3,B,10,3,6328,QURU,QURU,26,rep1
77,B11w3,B,11,3,6334,LITU,LITU,26,rep1
111,B5w3,B,5,3,6187,QURU,QURU,26,rep1
117,B6w3,B,6,3,6201,QURU,QURU,26,rep1
123,B7w3,B,7,3,6214,QURU,QURU,26,rep1
129,B8w3,B,8,3,6281,QURU,QURU,26,rep1
135,B9w3,B,9,3,6323,QURU,QURU,26,rep1
498,H10w2,H,10,2,6320,LITU,LITU,26,rep1
528,H6w2,H,6,2,6216,LITU,LITU,26,rep1
533,H7w2,H,7,2,6230,LITU,LITU,26,rep1
538,H8w2,H,8,2,6261,LITU,LITU,26,rep1
543,H9w2,H,9,2,6268,LITU,LITU,26,rep1
18,A12w6,A,12,6,6549,NYSY,NYSY,27,rep2
82,B12w3,B,12,3,6415,LIST2,LIST2,27,rep2
141,C10w3,C,10,3,6581,LITU,LITU,27,rep1
147,C11w3,C,11,3,6596,LIST2,LIST2,27,rep2
160,C1w3,C,1,3,6453,LIST2,LIST2,27,rep2
165,C2w3,C,2,3,6455,LITU,LITU,27,rep1
171,C3w3,C,3,3,6473,LIST2,LIST2,27,rep2
177,C4w3,C,4,3,6491,LITU,LITU,27,rep1
183,C5w3,C,5,3,6514,LITU,LITU,27,rep1
189,C6w3,C,6,3,6521,LITU,LITU,27,rep1
195,C7w3,C,7,3,6523,LIST2,LIST2,27,rep2
201,C8w3,C,8,3,6567,LITU,LITU,27,rep1
207,C9w3,C,9,3,6577,LIST2,LIST2,27,rep2
531,H6w5,H,6,5,6492,NYSY,NYSY,27,rep2
536,H7w5,H,7,5,6424,NYSY,NYSY,27,rep2
541,H8w5,H,8,5,6487,NYSY,NYSY,27,rep2
545,H9w5,H,9,5,6559,NYSY,NYSY,27,rep2
426,G10w2,G,10,2,6830,LITU,LITU,28,rep1
432,G11w2,G,11,2,6844,LITU,LITU,28,rep1
474,G6w2,G,6,2,6726,LITU,LITU,28,rep1
480,G7w2,G,7,2,6741,LITU,LITU,28,rep1
486,G8w2,G,8,2,6771,LITU,LITU,28,rep1
492,G9w2,G,9,2,6778,LITU,LITU,28,rep1
153,C12w3,C,12,3,6927,QUVE,QUVE,29,rep1
232,D1w3,D,1,3,6950,QUVE,QUVE,29,rep1
237,D2w3,D,2,3,6954,QUVE,QUVE,29,rep1
243,D3w3,D,3,3,6969,QUVE,QUVE,29,rep1
249,D4w3,D,4,3,7040,QUVE,QUVE,29,rep1
255,D5w3,D,5,3,7057,QUVE,QUVE,29,rep1
213,D10w3,D,10,3,7324,QURU,QURU,30,rep1
219,D11w3,D,11,3,7344,QURU,QURU,30,rep1
261,D6w3,D,6,3,7194,QURU,QURU,30,rep1
267,D7w3,D,7,3,7235,QURU,QURU,30,rep1
273,D8w3,D,8,3,7239,QURU,QURU,30,rep1
279,D9w3,D,9,3,7281,QURU,QURU,30,rep1
225,D12w3,D,12,3,7434,LIST2,LIST2,31,rep1
304,E1w3,E,1,3,7465,LIST2,LIST2,31,rep1
309,E2w3,E,2,3,7508,LIST2,LIST2,31,rep1
315,E3w3,E,3,3,7548,LIST2,LIST2,31,rep1
321,E4w3,E,4,3,7565,LIST2,LIST2,31,rep1
327,E5w3,E,5,3,7583,LIST2,LIST2,31,rep1
91,B1w5,B,1,5,7783,NYSY,NYSY,32,rep2
483,G7w5,G,7,5,7777,NYSY,NYSY,32,rep2
508,H2w5,H,2,5,7708,NYSY,NYSY,32,rep2
514,H3w5,H,3,5,7849,NYSY,NYSY,32,rep2
520,H4w5,H,4,5,7856,NYSY,NYSY,32,rep2
526,H5w5,H,5,5,7870,NYSY,NYSY,32,rep2
95,B2w5,B,2,5,7954,NYSY,NYSY,33,rep2
101,B3w5,B,3,5,8017,NYSY,NYSY,33,rep2
107,B4w5,B,4,5,8022,NYSY,NYSY,33,rep2
113,B5w5,B,5,5,8083,NYSY,NYSY,33,rep2
119,B6w5,B,6,5,8015,CACA18,CACA18,33,rep1
125,B7w5,B,7,5,8121,NYSY,NYSY,33,rep2
285,E10w3,E,10,3,8075,LIST2,LIST2,33,rep1
291,E11w3,E,11,3,8092,LIST2,LIST2,33,rep1
333,E6w3,E,6,3,7944,LIST2,LIST2,33,rep1
339,E7w3,E,7,3,7975,LIST2,LIST2,33,rep1
345,E8w3,E,8,3,8018,LIST2,LIST2,33,rep1
351,E9w3,E,9,3,8058,LIST2,LIST2,33,rep1
48,A6w4,A,6,4,8337,FAGR,FAGR,34,rep2
73,B10w5,B,10,5,8238,CAAL27,CAAL27,34,rep2
78,B11w5,B,11,5,8274,CAAL27,CAAL27,34,rep2
84,B12w5,B,12,5,8293,CAAL27,CAAL27,34,rep2
96,B2w6,B,2,6,8289,CAAL27,CAAL27,34,rep2
131,B8w5,B,8,5,8216,CAAL27,CAAL27,34,rep2
137,B9w5,B,9,5,8227,CAAL27,CAAL27,34,rep2
22,A1w4,A,1,4,8484,ULAM,ULAM,35,rep2
27,A2w4,A,2,4,8524,ULAM,ULAM,35,rep2
33,A3w4,A,3,4,8531,ULAM,ULAM,35,rep2
43,A5w4,A,5,4,8575,ULAM,ULAM,35,rep2
102,B3w6,B,3,6,8576,ULAM,ULAM,35,rep2
297,E12w3,E,12,3,8613,ULAM,ULAM,35,rep2
4,A10w4,A,10,4,8878,ULAM,ULAM,36,rep2
54,A7w4,A,7,4,8786,ULAM,ULAM,36,rep2
60,A8w4,A,8,4,8812,ULAM,ULAM,36,rep2
66,A9w4,A,9,4,8826,ULAM,ULAM,36,rep2
108,B4w6,B,4,6,8865,ULAM,ULAM,36,rep2
356,F10w3,F,10,3,8766,FRPE,FRPE,36,rep1
362,F11w3,F,11,3,8814,FRPE,FRPE,36,rep1
368,F12w3,F,12,3,8832,FRPE,FRPE,36,rep1
375,F1w3,F,1,3,8704,QUVE,*QUPA,36,rep1
380,F2w3,F,2,3,8719,FRPE,FRPE,36,rep1
386,F3w3,F,3,3,8725,QUVE,*QUPA,36,rep1
392,F4w3,F,4,3,8750,QUVE,*QUPA,36,rep1
398,F5w3,F,5,3,8752,QUVE,*QUPA,36,rep1
403,F6w3,F,6,3,8779,ULAM,ULAM,36,rep2
409,F7w3,F,7,3,8831,QUVE,*QUPA,36,rep1
415,F8w3,F,8,3,8857,QUVE,QUVE,36,rep1
421,F9w3,F,9,3,8753,FRPE,FRPE,36,rep1
446,G1w3,G,1,3,8869,FRPE,FRPE,36,rep1
114,B5w6,B,5,6,8893,FRPE,FRPE,37,rep1
451,G2w3,G,2,3,8982,FRPE,FRPE,37,rep1
457,G3w3,G,3,3,9008,FRPE,FRPE,37,rep1
463,G4w3,G,4,3,9025,FRPE,FRPE,37,rep1
469,G5w3,G,5,3,9067,FRPE,FRPE,37,rep1
475,G6w3,G,6,3,9079,FRPE,FRPE,37,rep1
481,G7w3,G,7,3,9132,FRPE,FRPE,37,rep1
74,B10w6,B,10,6,9620,COFL2,COFL2,40,rep2
79,B11w6,B,11,6,9624,COFL2,COFL2,40,rep2
120,B6w6,B,6,6,9501,COFL2,COFL2,40,rep2
126,B7w6,B,7,6,9531,COFL2,COFL2,40,rep2
132,B8w6,B,8,6,9559,COFL2,COFL2,40,rep2
138,B9w6,B,9,6,9566,COFL2,COFL2,40,rep2
162,C1w5,C,1,5,9731,PLOC,PLOC,41,rep2
167,C2w5,C,2,5,9746,PLOC,PLOC,41,rep2
173,C3w5,C,3,5,9769,PLOC,PLOC,41,rep2
179,C4w5,C,4,5,9784,PLOC,PLOC,41,rep2
185,C5w5,C,5,5,9845,PLOC,PLOC,41,rep2
191,C6w5,C,6,5,9850,PLOC,PLOC,41,rep2
85,B12w6,B,12,6,9980,LIST2,LIST2,42,rep2
144,C10w6,C,10,6,10121,COFL2,COFL2,42,rep2
150,C11w6,C,11,6,10134,COFL2,COFL2,42,rep2
168,C2w6,C,2,6,10041,COFL2,COFL2,42,rep2
174,C3w6,C,3,6,10055,COFL2,COFL2,42,rep2
180,C4w6,C,4,6,10058,LIST2,LIST2,42,rep2
186,C5w6,C,5,6,10069,COFL2,COFL2,42,rep2
192,C6w6,C,6,6,10084,LIST2,LIST2,42,rep2
198,C7w6,C,7,6,10091,LIST2,LIST2,42,rep2
204,C8w6,C,8,6,10103,LIST2,LIST2,42,rep2
210,C9w6,C,9,6,10116,LIST2,LIST2,42,rep2
156,C12w6,C,12,6,10241,LIST2,LIST2,43,rep2
240,D2w6,D,2,6,10339,LIST2,LIST2,43,rep2
246,D3w6,D,3,6,10347,LIST2,LIST2,43,rep2
252,D4w6,D,4,6,10358,LIST2,LIST2,43,rep2
258,D5w6,D,5,6,10375,LIST2,LIST2,43,rep2
216,D10w6,D,10,6,10602,QURU,QURU,44,rep2
222,D11w6,D,11,6,10661,QURU,QURU,44,rep2
264,D6w6,D,6,6,10511,QURU,QURU,44,rep2
270,D7w6,D,7,6,10524,QURU,QURU,44,rep2
276,D8w6,D,8,6,10552,QURU,QURU,44,rep2
282,D9w6,D,9,6,10566,QURU,QURU,44,rep2
10,A11w4,A,11,4,10790,ULAM,ULAM,45,rep2
16,A12w4,A,12,4,10795,ULAM,ULAM,45,rep2
90,B1w4,B,1,4,10804,ULAM,ULAM,45,rep2
94,B2w4,B,2,4,10855,ULAM,ULAM,45,rep2
228,D12w6,D,12,6,10796,ULAM,ULAM,45,rep2
312,E2w6,E,2,6,10865,ULAM,ULAM,45,rep2
318,E3w6,E,3,6,10888,ULAM,ULAM,45,rep2
427,G10w3,G,10,3,10881,ULAM,ULAM,45,rep2
487,G8w3,G,8,3,10887,ULAM,ULAM,45,rep2
324,E4w6,E,4,6,11288,FRPE,FRPE,47,rep2
330,E5w6,E,5,6,11290,FRPE,FRPE,47,rep2
336,E6w6,E,6,6,11376,FRPE,FRPE,47,rep2
342,E7w6,E,7,6,11378,FRPE,FRPE,47,rep2
348,E8w6,E,8,6,11380,FRPE,FRPE,47,rep2
353,E9w6,E,9,6,11413,FRPE,FRPE,47,rep2
197,C7w5,C,7,5,11572,FAGR,FAGR,48,rep2
288,E10w6,E,10,6,11531,FRPE,FRPE,48,rep2
294,E11w6,E,11,6,11557,FRPE,FRPE,48,rep2
300,E12w6,E,12,6,11615,FRPE,FRPE,48,rep2
383,F2w6,F,2,6,11647,FRPE,FRPE,48,rep2
389,F3w6,F,3,6,11658,FRPE,FRPE,48,rep2
519,H4w4,H,4,4,11570,FAGR,FAGR,48,rep2
525,H5w4,H,5,4,11630,FAGR,FAGR,48,rep2
530,H6w4,H,6,4,11635,FAGR,FAGR,48,rep2
535,H7w4,H,7,4,11666,FAGR,FAGR,48,rep2
540,H8w4,H,8,4,11681,FAGR,FAGR,48,rep2
143,C10w5,C,10,5,11876,FAGR,FAGR,49,rep2
149,C11w5,C,11,5,11891,FAGR,FAGR,49,rep2
155,C12w5,C,12,5,11916,FAGR,FAGR,49,rep2
203,C8w5,C,8,5,11827,FAGR,FAGR,49,rep2
209,C9w5,C,9,5,11832,FAGR,FAGR,49,rep2
234,D1w5,D,1,5,11930,FAGR,FAGR,49,rep2
395,F4w6,F,4,6,12041,FRPE,FRPE,50,rep2
401,F5w6,F,5,6,12067,FRPE,FRPE,50,rep2
406,F6w6,F,6,6,12125,FRPE,FRPE,50,rep2
412,F7w6,F,7,6,12129,FRPE,FRPE,50,rep2
418,F8w6,F,8,6,12157,FRPE,FRPE,50,rep2
424,F9w6,F,9,6,12168,FRPE,FRPE,50,rep2
100,B3w4,B,3,4,12304,QUVE,*QUPA,52,rep1
106,B4w4,B,4,4,12307,QUVE,*QUPA,52,rep1
112,B5w4,B,5,4,12310,QUVE,*QUPA,52,rep1
118,B6w4,B,6,4,12313,QUVE,*QUPA,52,rep1
124,B7w4,B,7,4,12410,QUVE,*QUPA,52,rep1
130,B8w4,B,8,4,12417,QUVE,*QUPA,52,rep1
239,D2w5,D,2,5,12320,FAGR,FAGR,52,rep2
245,D3w5,D,3,5,12326,FAGR,FAGR,52,rep2
251,D4w5,D,4,5,12356,FAGR,FAGR,52,rep2
257,D5w5,D,5,5,12371,FAGR,FAGR,52,rep2
263,D6w5,D,6,5,12396,FAGR,FAGR,52,rep2
269,D7w5,D,7,5,12429,FAGR,FAGR,52,rep2
359,F10w6,F,10,6,12317,QURU,QURU,52,rep2
365,F11w6,F,11,6,12325,QURU,QURU,52,rep2
371,F12w6,F,12,6,12364,QURU,QURU,52,rep2
454,G2w6,G,2,6,12423,CAAL27,CAAL27,52,NA
460,G3w6,G,3,6,12439,QURU,QURU,52,rep2
466,G4w6,G,4,6,12559,QURU,QURU,53,rep2
472,G5w6,G,5,6,12564,QURU,QURU,53,rep2
478,G6w6,G,6,6,12608,QURU,QURU,53,rep2
484,G7w6,G,7,6,12619,QURU,QURU,53,rep2
490,G8w6,G,8,6,12625,QURU,QURU,53,rep2
496,G9w6,G,9,6,12709,QURU,QURU,53,rep2
72,B10w4,B,10,4,13062,QUVE,QUVE,55,rep2
83,B12w4,B,12,4,13243,QUVE,QUVE,55,rep2
136,B9w4,B,9,4,13059,QUVE,QUVE,55,rep2
433,G11w3,G,11,3,13224,QUVE,QUVE,55,rep2
493,G9w3,G,9,3,13106,QUVE,QUVE,55,rep2
161,C1w4,C,1,4,13309,CACA18,CACA18,56,rep2
166,C2w4,C,2,4,13315,CACA18,CACA18,56,rep2
172,C3w4,C,3,4,13399,CACA18,CACA18,56,rep2
178,C4w4,C,4,4,13404,CACA18,CACA18,56,rep2
488,G8w4,G,8,4,13438,CACA18,CACA18,56,rep2
494,G9w4,G,9,4,13460,CACA18,CACA18,56,rep2
184,C5w4,C,5,4,13554,CACA18,CACA18,57,rep2
190,C6w4,C,6,4,13579,CACA18,CACA18,57,rep2
196,C7w4,C,7,4,13657,CACA18,CACA18,57,rep2
202,C8w4,C,8,4,13683,CACA18,CACA18,57,rep2
208,C9w4,C,9,4,13727,QURU,QURU,57,rep2
501,H1w3,H,1,3,13691,CACA18,CACA18,57,rep2
142,C10w4,C,10,4,13780,CACA18,CACA18,58,rep2
148,C11w4,C,11,4,13858,CACA18,CACA18,58,rep2
154,C12w4,C,12,4,13884,CACA18,CACA18,58,rep2
233,D1w4,D,1,4,13932,CACA18,CACA18,58,rep2
238,D2w4,D,2,4,13954,CACA18,CACA18,58,rep2
244,D3w4,D,3,4,14002,CACA18,CACA18,58,rep2
430,G10w6,G,10,6,13841,COFL2,COFL2,58,rep2
436,G11w6,G,11,6,13852,COFL2,COFL2,58,rep2
442,G12w6,G,12,6,13865,COFL2,COFL2,58,rep2
504,H1w6,H,1,6,13909,COFL2,COFL2,58,rep2
509,H2w6,H,2,6,13944,COFL2,COFL2,58,rep2
515,H3w6,H,3,6,13991,COFL2,COFL2,58,rep2
215,D10w5,D,10,5,14374,PLOC,PLOC,60,rep2
221,D11w5,D,11,5,14390,PLOC,PLOC,60,rep2
227,D12w5,D,12,5,14418,PLOC,PLOC,60,rep2
275,D8w5,D,8,5,14331,PLOC,PLOC,60,rep2
281,D9w5,D,9,5,14335,PLOC,PLOC,60,rep2
306,E1w5,E,1,5,14458,PLOC,PLOC,60,rep2
311,E2w5,E,2,5,14586,PLOC,PLOC,62,rep2
317,E3w5,E,3,5,14590,PLOC,PLOC,62,rep2
323,E4w5,E,4,5,14637,PLOC,PLOC,62,rep2
329,E5w5,E,5,5,14651,PLOC,PLOC,62,rep2
335,E6w5,E,6,5,14678,PLOC,PLOC,62,rep2
341,E7w5,E,7,5,14703,PLOC,PLOC,62,rep2
287,E10w5,E,10,5,14878,QUVE,*QUPA,63,rep2
293,E11w5,E,11,5,14944,QUVE,*QUPA,63,rep2
299,E12w5,E,12,5,14947,QUVE,*QUPA,63,rep2
347,E8w5,E,8,5,14844,QUVE,*QUPA,63,rep2
377,F1w5,F,1,5,14952,QUVE,*QUPA,63,rep2
382,F2w5,F,2,5,15096,QUVE,*QUPA,64,rep2
388,F3w5,F,3,5,15100,QUVE,*QUPA,64,rep2
394,F4w5,F,4,5,15118,QUVE,*QUPA,64,rep2
400,F5w5,F,5,5,15192,QUVE,*QUPA,64,rep2
411,F7w5,F,7,5,15202,QUVE,*QUPA,64,rep2
544,H9w4,H,9,4,15183,QUVE,*QUPA,64,rep2
358,F10w5,F,10,5,15420,CAAL27,CAAL27,65,rep2
364,F11w5,F,11,5,15444,CAAL27,CAAL27,65,rep2
370,F12w5,F,12,5,15491,CAAL27,CAAL27,65,rep2
405,F6w5,F,6,5,15318,CAAL27,CAAL27,65,rep2
417,F8w5,F,8,5,15319,CAAL27,CAAL27,65,rep2
423,F9w5,F,9,5,15327,CAAL27,CAAL27,65,rep2
448,G1w5,G,1,5,15606,CAAL27,CAAL27,66,rep2
453,G2w5,G,2,5,15634,CAAL27,CAAL27,66,rep2
459,G3w5,G,3,5,15644,CAAL27,CAAL27,66,rep2
465,G4w5,G,4,5,15669,CAAL27,CAAL27,66,rep2
471,G5w5,G,5,5,15728,CAAL27,CAAL27,66,rep2
477,G6w5,G,6,5,15763,CAAL27,CAAL27,66,rep2
250,D4w4,D,4,4,15853,ACRU,ACRU,67,rep2
256,D5w4,D,5,4,15866,ACRU,ACRU,67,rep2
262,D6w4,D,6,4,15913,ACRU,ACRU,67,rep2
268,D7w4,D,7,4,15926,ACRU,ACRU,67,rep2
274,D8w4,D,8,4,15951,ACRU,ACRU,67,rep2
280,D9w4,D,9,4,16002,ACRU,ACRU,67,rep2
214,D10w4,D,10,4,16098,ACRU,ACRU,68,rep2
220,D11w4,D,11,4,16134,ACRU,ACRU,68,rep2
226,D12w4,D,12,4,16178,ACRU,ACRU,68,rep2
305,E1w4,E,1,4,16187,ACRU,ACRU,68,rep2
310,E2w4,E,2,4,16211,ACRU,ACRU,68,rep2
316,E3w4,E,3,4,16278,ACRU,ACRU,68,rep2
322,E4w4,E,4,4,16615,LITU,LITU,72,rep2
328,E5w4,E,5,4,16642,LITU,LITU,72,rep2
334,E6w4,E,6,4,16689,LITU,LITU,72,rep2
340,E7w4,E,7,4,16707,LITU,LITU,72,rep2
346,E8w4,E,8,4,16717,LITU,LITU,72,rep2
428,G10w4,G,10,4,16627,QUVE,QUVE,72,rep2
434,G11w4,G,11,4,16653,QUVE,QUVE,72,rep2
439,G12w3,G,12,3,16721,LITU,LITU,72,rep2
440,G12w4,G,12,4,16659,QUVE,*QUPA,72,rep2
502,H1w4,H,1,4,16729,QUVE,QUVE,72,rep2
507,H2w4,H,2,4,16734,QUVE,QUVE,72,rep2
513,H3w4,H,3,4,16737,QUVE,*QUPA,72,rep2
521,H4w6,H,4,6,16685,LITU,LITU,72,rep2
286,E10w4,E,10,4,16942,LITU,LITU,73,rep2
292,E11w4,E,11,4,16954,LITU,LITU,73,rep2
298,E12w4,E,12,4,16970,LITU,LITU,73,rep2
352,E9w4,E,9,4,16867,LITU,LITU,73,rep2
376,F1w4,F,1,4,16974,LITU,LITU,73,rep2
506,H2w3,H,2,3,16882,LITU,LITU,73,rep2
381,F2w4,F,2,4,17141,QUVE,QUVE,74,rep2
387,F3w4,F,3,4,17169,QUVE,*QUPA,74,rep2
393,F4w4,F,4,4,17193,QUVE,*QUPA,74,rep2
399,F5w4,F,5,4,17232,LITU,LITU,74,rep2
404,F6w4,F,6,4,17239,QUVE,*QUPA,74,rep2
410,F7w4,F,7,4,17277,QUVE,*QUPA,74,rep2
416,F8w4,F,8,4,17286,QUVE,*QUPA,74,rep2
512,H3w3,H,3,3,17122,LITU,LITU,74,rep2
518,H4w3,H,4,3,17151,LITU,LITU,74,rep2
524,H5w3,H,5,3,17211,LITU,LITU,74,rep2
529,H6w3,H,6,3,17213,LITU,LITU,74,rep2
534,H7w3,H,7,3,17216,LITU,LITU,74,rep2
357,F10w4,F,10,4,17396,ACRU,ACRU,75,rep2
363,F11w4,F,11,4,17449,ACRU,ACRU,75,rep2
369,F12w4,F,12,4,17454,ACRU,ACRU,75,rep2
422,F9w4,F,9,4,17389,ACRU,ACRU,75,rep2
447,G1w4,G,1,4,17479,ACRU,ACRU,75,rep2
452,G2w4,G,2,4,17533,ACRU,ACRU,75,rep2
458,G3w4,G,3,4,17651,QUVE,QUVE,76,rep2
464,G4w4,G,4,4,17662,QUVE,QUVE,76,rep2
470,G5w4,G,5,4,17704,QUVE,QUVE,76,rep2
476,G6w4,G,6,4,17793,QUVE,QUVE,76,rep2
482,G7w4,G,7,4,17796,QUVE,QUVE,76,rep2
539,H8w3,H,8,3,17771,QUVE,QUVE,76,rep2